{
  "formatVersion": 1,
  "database": {
    "version": 3,
    "identityHash": "e239018b14f457c2f3046a41ce0f34b5",
    "entities": [
      {
        "tableName": "contacts",
        "createSql": "CREATE TABLE IF NOT EXISTS `${TABLE_NAME}` (`id` INTEGER PRIMARY KEY AUTOINCREMENT, `name` TEXT NOT NULL)",
        "fields": [
          {
            "fieldPath": "id",
            "columnName": "id",
            "affinity": "INTEGER",
            "notNull": false
          },
          {
            "fieldPath": "name",
            "columnName": "name",
            "affinity": "TEXT",
            "notNull": true
          }
        ],
        "primaryKey": {
          "columnNames": [
            "id"
          ],
          "autoGenerate": true
        },
        "indices": [],
        "foreignKeys": []
      },
      {
        "tableName": "messages",
        "createSql": "CREATE TABLE IF NOT EXISTS `${TABLE_NAME}` (`id` INTEGER PRIMARY KEY AUTOINCREMENT, `content` TEXT NOT NULL, `date` INTEGER NOT NULL, `contactId` INTEGER NOT NULL, `isItMe` INTEGER NOT NULL)",
        "fields": [
          {
            "fieldPath": "id",
            "columnName": "id",
            "affinity": "INTEGER",
            "notNull": false
          },
          {
            "fieldPath": "content",
            "columnName": "content",
            "affinity": "TEXT",
            "notNull": true
          },
          {
            "fieldPath": "date",
            "columnName": "date",
            "affinity": "INTEGER",
            "notNull": true
          },
          {
            "fieldPath": "contactId",
            "columnName": "contactId",
            "affinity": "INTEGER",
            "notNull": true
          },
          {
            "fieldPath": "isItMe",
            "columnName": "isItMe",
            "affinity": "INTEGER",
            "notNull": true
          }
        ],
        "primaryKey": {
          "columnNames": [
            "id"
          ],
          "autoGenerate": true
        },
        "indices": [],
        "foreignKeys": []
      },
      {
        "tableName": "recommendations",
        "createSql": "CREATE TABLE IF NOT EXISTS `${TABLE_NAME}` (`id` INTEGER PRIMARY KEY AUTOINCREMENT NOT NULL, `mot1` TEXT NOT NULL, `mot2` TEXT NOT NULL, `mot3` TEXT NOT NULL, `counter` INTEGER NOT NULL, `is_idiomatic` INTEGER NOT NULL, `mode` INTEGER NOT NULL)",
        "fields": [
          {
            "fieldPath": "id",
            "columnName": "id",
            "affinity": "INTEGER",
            "notNull": true
          },
          {
            "fieldPath": "word1",
            "columnName": "mot1",
            "affinity": "TEXT",
            "notNull": true
          },
          {
            "fieldPath": "word2",
            "columnName": "mot2",
            "affinity": "TEXT",
            "notNull": true
          },
          {
            "fieldPath": "word3",
            "columnName": "mot3",
            "affinity": "TEXT",
            "notNull": true
          },
          {
            "fieldPath": "counter",
            "columnName": "counter",
            "affinity": "INTEGER",
            "notNull": true
          },
          {
            "fieldPath": "isIdiomatic",
            "columnName": "is_idiomatic",
            "affinity": "INTEGER",
            "notNull": true
          },
          {
            "fieldPath": "mode",
            "columnName": "mode",
            "affinity": "INTEGER",
            "notNull": true
          }
        ],
        "primaryKey": {
          "columnNames": [
            "id"
          ],
          "autoGenerate": true
        },
        "indices": [],
        "foreignKeys": []
      }
    ],
    "views": [],
    "setupQueries": [
      "CREATE TABLE IF NOT EXISTS room_master_table (id INTEGER PRIMARY KEY,identity_hash TEXT)",
      "INSERT OR REPLACE INTO room_master_table (id,identity_hash) VALUES(42, \"e239018b14f457c2f3046a41ce0f34b5\")"
    ]
  }
}